CSC3107 - Information Visualisation Project
…
Load Dataset

current_us <- read_excel(
  "SIPRI-Milex-data-2018-2023.xlsx",
  sheet = "Current US$",
  skip = 5)

share_gdp <- read_excel(
  "SIPRI-Milex-data-2018-2023.xlsx",
  sheet = "Share of GDP",
  skip = 5)

current_us

# A tibble: 193 × 8
   Country           Notes `2018.0` `2019.0` `2020.0` `2021.0` `2022.0` `2023.0`
   <chr>             <chr> <chr>    <chr>    <chr>    <chr>    <chr>    <chr>   
 1 <NA>              <NA>  <NA>     <NA>     <NA>     <NA>     <NA>     <NA>    
 2 Africa            <NA>  <NA>     <NA>     <NA>     <NA>     <NA>     <NA>    
 3 North Africa      <NA>  <NA>     <NA>     <NA>     <NA>     <NA>     <NA>    
 4 Algeria           §4    9583.72… 10303.6… 9708.27… 9112.46… 9145.81… 18263.9…
 5 Libya             ‡§¶16 ...      ...      ...      ...      ...      ...     
 6 Morocco           §17   3696.85… 3721.32… 4830.95… 5378.36… 4995.02… 5184.92…
 7 Tunisia           <NA>  844.227… 1000.92… 1157.37… 1250.45… 1156.18… 1208.20…
 8 sub-Saharan Afri… <NA>  <NA>     <NA>     <NA>     <NA>     <NA>     <NA>    
 9 Angola            §‖1   1983.61… 1470.93… 993.594… 981.451… 1622.76… 1270.15…
10 Benin             §     90.2124… 68.1123… 71.8178… 97.4244… 110.010… 140.776…
# ℹ 183 more rows

share_gdp

# A tibble: 193 × 8
   Country           Notes `2018.0` `2019.0` `2020.0` `2021.0` `2022.0` `2023.0`
   <chr>             <chr> <chr>    <chr>    <chr>    <chr>    <chr>    <chr>   
 1 <NA>              <NA>  <NA>     <NA>     <NA>     <NA>     <NA>     <NA>    
 2 Africa            <NA>  <NA>     <NA>     <NA>     <NA>     <NA>     <NA>    
 3 North Africa      <NA>  <NA>     <NA>     <NA>     <NA>     <NA>     <NA>    
 4 Algeria           §4    0.05483… 0.05999… 0.06658… 0.05570… 0.04695… 0.08171…
 5 Libya             ‡§¶16 ...      ...      ...      ...      ...      ...     
 6 Morocco           §17   0.02902… 0.02865… 0.03979… 0.03755… 0.03814… 0.03638…
 7 Tunisia           <NA>  0.01976… 0.02383… 0.02709… 0.02636… 0.02473… 0.02357…
 8 sub-Saharan Afri… <NA>  <NA>     <NA>     <NA>     <NA>     <NA>     <NA>    
 9 Angola            §‖1   0.01955… 0.01739… 0.01736… 0.01300… 0.01316… 0.01332…
10 Benin             §     0.00632… 0.00473… 0.00458… 0.00550… 0.00632… 0.00711…
# ℹ 183 more rows
…
